[2023-10-16T15:33:59.951+0200][gc,heap] Heap region size: 1M
[2023-10-16T15:33:59.969+0200][gc     ] Using G1
[2023-10-16T15:33:59.970+0200][gc,heap,coops] Heap address: 0x00000000c0000000, size: 1024 MB, Compressed Oops mode: 32-bit
[2023-10-16T15:33:59.970+0200][gc,cds       ] Mark closed archive regions in map: [0x00000000fff00000, 0x00000000fff6bff8]
[2023-10-16T15:33:59.971+0200][gc,cds       ] Mark open archive regions in map: [0x00000000ffe00000, 0x00000000ffe47ff8]
[2023-10-16T15:34:00.746+0200][gc,start     ] GC(0) Pause Young (Normal) (G1 Evacuation Pause)
[2023-10-16T15:34:00.750+0200][gc,task      ] GC(0) Using 8 workers of 8 for evacuation
[2023-10-16T15:34:00.771+0200][gc,mmu       ] GC(0) MMU target violated: 20.3ms (20.0ms/21.0ms)
[2023-10-16T15:34:00.771+0200][gc,phases    ] GC(0)   Pre Evacuate Collection Set: 0.0ms
[2023-10-16T15:34:00.771+0200][gc,phases    ] GC(0)   Evacuate Collection Set: 19.5ms
[2023-10-16T15:34:00.771+0200][gc,phases    ] GC(0)   Post Evacuate Collection Set: 0.6ms
[2023-10-16T15:34:00.771+0200][gc,phases    ] GC(0)   Other: 4.3ms
[2023-10-16T15:34:00.771+0200][gc,heap      ] GC(0) Eden regions: 51->0(44)
[2023-10-16T15:34:00.771+0200][gc,heap      ] GC(0) Survivor regions: 0->7(7)
[2023-10-16T15:34:00.771+0200][gc,heap      ] GC(0) Old regions: 2->2
[2023-10-16T15:34:00.771+0200][gc,heap      ] GC(0) Humongous regions: 0->0
[2023-10-16T15:34:00.771+0200][gc,metaspace ] GC(0) Metaspace: 14781K(15360K)->14781K(15360K) NonClass: 12953K(13312K)->12953K(13312K) Class: 1828K(2048K)->1828K(2048K)
[2023-10-16T15:34:00.771+0200][gc           ] GC(0) Pause Young (Normal) (G1 Evacuation Pause) 51M->7M(1024M) 24.738ms
[2023-10-16T15:34:00.771+0200][gc,cpu       ] GC(0) User=0.05s Sys=0.03s Real=0.03s
[2023-10-16T15:34:19.003+0200][gc,heap,exit ] Heap
[2023-10-16T15:34:19.004+0200][gc,heap,exit ]  garbage-first heap   total 1048576K, used 10332K [0x00000000c0000000, 0x0000000100000000)
[2023-10-16T15:34:19.004+0200][gc,heap,exit ]   region size 1024K, 11 young (11264K), 7 survivors (7168K)
[2023-10-16T15:34:19.004+0200][gc,heap,exit ]  Metaspace       used 15357K, capacity 15850K, committed 16000K, reserved 1062912K
[2023-10-16T15:34:19.004+0200][gc,heap,exit ]   class space    used 1909K, capacity 2113K, committed 2176K, reserved 1048576K
