[2023-10-16T15:45:05.298+0200][gc,heap] Heap region size: 1M
[2023-10-16T15:45:05.316+0200][gc     ] Using G1
[2023-10-16T15:45:05.316+0200][gc,heap,coops] Heap address: 0x00000000c0000000, size: 1024 MB, Compressed Oops mode: 32-bit
[2023-10-16T15:45:05.317+0200][gc,cds       ] Mark closed archive regions in map: [0x00000000fff00000, 0x00000000fff6bff8]
[2023-10-16T15:45:05.317+0200][gc,cds       ] Mark open archive regions in map: [0x00000000ffe00000, 0x00000000ffe47ff8]
[2023-10-16T15:45:06.046+0200][gc,start     ] GC(0) Pause Young (Normal) (G1 Evacuation Pause)
[2023-10-16T15:45:06.050+0200][gc,task      ] GC(0) Using 8 workers of 8 for evacuation
[2023-10-16T15:45:06.080+0200][gc,mmu       ] GC(0) MMU target violated: 21.0ms (20.0ms/21.0ms)
[2023-10-16T15:45:06.081+0200][gc,phases    ] GC(0)   Pre Evacuate Collection Set: 0.0ms
[2023-10-16T15:45:06.081+0200][gc,phases    ] GC(0)   Evacuate Collection Set: 29.3ms
[2023-10-16T15:45:06.081+0200][gc,phases    ] GC(0)   Post Evacuate Collection Set: 1.0ms
[2023-10-16T15:45:06.081+0200][gc,phases    ] GC(0)   Other: 4.2ms
[2023-10-16T15:45:06.081+0200][gc,heap      ] GC(0) Eden regions: 51->0(44)
[2023-10-16T15:45:06.081+0200][gc,heap      ] GC(0) Survivor regions: 0->7(7)
[2023-10-16T15:45:06.081+0200][gc,heap      ] GC(0) Old regions: 2->2
[2023-10-16T15:45:06.081+0200][gc,heap      ] GC(0) Humongous regions: 0->0
[2023-10-16T15:45:06.081+0200][gc,metaspace ] GC(0) Metaspace: 14776K(15360K)->14776K(15360K) NonClass: 12948K(13312K)->12948K(13312K) Class: 1828K(2048K)->1828K(2048K)
[2023-10-16T15:45:06.081+0200][gc           ] GC(0) Pause Young (Normal) (G1 Evacuation Pause) 51M->7M(1024M) 34.633ms
[2023-10-16T15:45:06.081+0200][gc,cpu       ] GC(0) User=0.04s Sys=0.06s Real=0.04s
[2023-10-16T15:45:07.248+0200][gc,start     ] GC(1) Pause Young (Concurrent Start) (Metadata GC Threshold)
[2023-10-16T15:45:07.248+0200][gc,task      ] GC(1) Using 8 workers of 8 for evacuation
[2023-10-16T15:45:07.265+0200][gc,phases    ] GC(1)   Pre Evacuate Collection Set: 0.1ms
[2023-10-16T15:45:07.266+0200][gc,phases    ] GC(1)   Evacuate Collection Set: 16.3ms
[2023-10-16T15:45:07.266+0200][gc,phases    ] GC(1)   Post Evacuate Collection Set: 0.8ms
[2023-10-16T15:45:07.266+0200][gc,phases    ] GC(1)   Other: 0.3ms
[2023-10-16T15:45:07.266+0200][gc,heap      ] GC(1) Eden regions: 25->0(49)
[2023-10-16T15:45:07.266+0200][gc,heap      ] GC(1) Survivor regions: 7->2(7)
[2023-10-16T15:45:07.266+0200][gc,heap      ] GC(1) Old regions: 2->9
[2023-10-16T15:45:07.266+0200][gc,heap      ] GC(1) Humongous regions: 0->0
[2023-10-16T15:45:07.266+0200][gc,metaspace ] GC(1) Metaspace: 20650K(21248K)->20650K(21248K) NonClass: 18117K(18432K)->18117K(18432K) Class: 2533K(2816K)->2533K(2816K)
[2023-10-16T15:45:07.266+0200][gc           ] GC(1) Pause Young (Concurrent Start) (Metadata GC Threshold) 32M->8M(1024M) 17.772ms
[2023-10-16T15:45:07.266+0200][gc,cpu       ] GC(1) User=0.02s Sys=0.03s Real=0.02s
[2023-10-16T15:45:07.266+0200][gc           ] GC(2) Concurrent Cycle
[2023-10-16T15:45:07.266+0200][gc,marking   ] GC(2) Concurrent Clear Claimed Marks
[2023-10-16T15:45:07.266+0200][gc,marking   ] GC(2) Concurrent Clear Claimed Marks 0.070ms
[2023-10-16T15:45:07.266+0200][gc,marking   ] GC(2) Concurrent Scan Root Regions
[2023-10-16T15:45:07.268+0200][gc,marking   ] GC(2) Concurrent Scan Root Regions 1.883ms
[2023-10-16T15:45:07.268+0200][gc,marking   ] GC(2) Concurrent Mark (1.981s)
[2023-10-16T15:45:07.268+0200][gc,marking   ] GC(2) Concurrent Mark From Roots
[2023-10-16T15:45:07.268+0200][gc,task      ] GC(2) Using 2 workers of 2 for marking
[2023-10-16T15:45:07.274+0200][gc,marking   ] GC(2) Concurrent Mark From Roots 5.801ms
[2023-10-16T15:45:07.274+0200][gc,marking   ] GC(2) Concurrent Preclean
[2023-10-16T15:45:07.274+0200][gc,marking   ] GC(2) Concurrent Preclean 0.273ms
[2023-10-16T15:45:07.274+0200][gc,marking   ] GC(2) Concurrent Mark (1.981s, 1.987s) 6.290ms
[2023-10-16T15:45:07.275+0200][gc,start     ] GC(2) Pause Remark
[2023-10-16T15:45:07.277+0200][gc,stringtable] GC(2) Cleaned string and symbol table, strings: 5146 processed, 0 removed, symbols: 51029 processed, 46 removed
[2023-10-16T15:45:07.278+0200][gc            ] GC(2) Pause Remark 8M->8M(1024M) 3.223ms
[2023-10-16T15:45:07.278+0200][gc,cpu        ] GC(2) User=0.00s Sys=0.00s Real=0.00s
[2023-10-16T15:45:07.278+0200][gc,marking    ] GC(2) Concurrent Rebuild Remembered Sets
[2023-10-16T15:45:07.280+0200][gc,marking    ] GC(2) Concurrent Rebuild Remembered Sets 2.103ms
[2023-10-16T15:45:07.281+0200][gc,start      ] GC(2) Pause Cleanup
[2023-10-16T15:45:07.281+0200][gc            ] GC(2) Pause Cleanup 9M->9M(1024M) 0.397ms
[2023-10-16T15:45:07.281+0200][gc,cpu        ] GC(2) User=0.00s Sys=0.00s Real=0.00s
[2023-10-16T15:45:07.281+0200][gc,marking    ] GC(2) Concurrent Cleanup for Next Mark
[2023-10-16T15:45:07.290+0200][gc,marking    ] GC(2) Concurrent Cleanup for Next Mark 9.161ms
[2023-10-16T15:45:07.290+0200][gc            ] GC(2) Concurrent Cycle 24.525ms
[2023-10-16T15:45:07.795+0200][gc,start      ] GC(3) Pause Young (Normal) (G1 Evacuation Pause)
[2023-10-16T15:45:07.795+0200][gc,task       ] GC(3) Using 8 workers of 8 for evacuation
[2023-10-16T15:45:07.798+0200][gc,phases     ] GC(3)   Pre Evacuate Collection Set: 0.0ms
[2023-10-16T15:45:07.798+0200][gc,phases     ] GC(3)   Evacuate Collection Set: 2.7ms
[2023-10-16T15:45:07.798+0200][gc,phases     ] GC(3)   Post Evacuate Collection Set: 0.4ms
[2023-10-16T15:45:07.798+0200][gc,phases     ] GC(3)   Other: 0.2ms
[2023-10-16T15:45:07.798+0200][gc,heap       ] GC(3) Eden regions: 49->0(46)
[2023-10-16T15:45:07.799+0200][gc,heap       ] GC(3) Survivor regions: 2->5(7)
[2023-10-16T15:45:07.799+0200][gc,heap       ] GC(3) Old regions: 9->9
[2023-10-16T15:45:07.799+0200][gc,heap       ] GC(3) Humongous regions: 129->129
[2023-10-16T15:45:07.799+0200][gc,metaspace  ] GC(3) Metaspace: 29150K(30208K)->29150K(30208K) NonClass: 25756K(26368K)->25756K(26368K) Class: 3394K(3840K)->3394K(3840K)
[2023-10-16T15:45:07.799+0200][gc            ] GC(3) Pause Young (Normal) (G1 Evacuation Pause) 186M->140M(1024M) 3.464ms
[2023-10-16T15:45:07.799+0200][gc,cpu        ] GC(3) User=0.04s Sys=0.03s Real=0.00s
[2023-10-16T15:45:08.059+0200][gc,start      ] GC(4) Pause Young (Concurrent Start) (Metadata GC Threshold)
[2023-10-16T15:45:08.059+0200][gc,task       ] GC(4) Using 8 workers of 8 for evacuation
[2023-10-16T15:45:08.068+0200][gc,phases     ] GC(4)   Pre Evacuate Collection Set: 0.1ms
[2023-10-16T15:45:08.068+0200][gc,phases     ] GC(4)   Evacuate Collection Set: 8.3ms
[2023-10-16T15:45:08.068+0200][gc,phases     ] GC(4)   Post Evacuate Collection Set: 0.4ms
[2023-10-16T15:45:08.068+0200][gc,phases     ] GC(4)   Other: 0.3ms
[2023-10-16T15:45:08.068+0200][gc,heap       ] GC(4) Eden regions: 26->0(49)
[2023-10-16T15:45:08.068+0200][gc,heap       ] GC(4) Survivor regions: 5->2(7)
[2023-10-16T15:45:08.068+0200][gc,heap       ] GC(4) Old regions: 9->13
[2023-10-16T15:45:08.068+0200][gc,heap       ] GC(4) Humongous regions: 129->129
[2023-10-16T15:45:08.068+0200][gc,metaspace  ] GC(4) Metaspace: 34507K(35840K)->34507K(35840K) NonClass: 30445K(31104K)->30445K(31104K) Class: 4061K(4736K)->4061K(4736K)
[2023-10-16T15:45:08.068+0200][gc            ] GC(4) Pause Young (Concurrent Start) (Metadata GC Threshold) 165M->142M(1024M) 9.381ms
[2023-10-16T15:45:08.068+0200][gc,cpu        ] GC(4) User=0.05s Sys=0.03s Real=0.01s
[2023-10-16T15:45:08.068+0200][gc            ] GC(5) Concurrent Cycle
[2023-10-16T15:45:08.068+0200][gc,marking    ] GC(5) Concurrent Clear Claimed Marks
[2023-10-16T15:45:08.068+0200][gc,marking    ] GC(5) Concurrent Clear Claimed Marks 0.155ms
[2023-10-16T15:45:08.068+0200][gc,marking    ] GC(5) Concurrent Scan Root Regions
[2023-10-16T15:45:08.070+0200][gc,marking    ] GC(5) Concurrent Scan Root Regions 1.214ms
[2023-10-16T15:45:08.070+0200][gc,marking    ] GC(5) Concurrent Mark (2.782s)
[2023-10-16T15:45:08.070+0200][gc,marking    ] GC(5) Concurrent Mark From Roots
[2023-10-16T15:45:08.070+0200][gc,task       ] GC(5) Using 2 workers of 2 for marking
[2023-10-16T15:45:08.083+0200][gc,marking    ] GC(5) Concurrent Mark From Roots 12.908ms
[2023-10-16T15:45:08.083+0200][gc,marking    ] GC(5) Concurrent Preclean
[2023-10-16T15:45:08.083+0200][gc,marking    ] GC(5) Concurrent Preclean 0.128ms
[2023-10-16T15:45:08.083+0200][gc,marking    ] GC(5) Concurrent Mark (2.782s, 2.796s) 13.222ms
[2023-10-16T15:45:08.083+0200][gc,start      ] GC(5) Pause Remark
[2023-10-16T15:45:08.086+0200][gc,stringtable] GC(5) Cleaned string and symbol table, strings: 10833 processed, 10 removed, symbols: 83592 processed, 16 removed
[2023-10-16T15:45:08.086+0200][gc            ] GC(5) Pause Remark 144M->144M(1024M) 3.295ms
[2023-10-16T15:45:08.086+0200][gc,cpu        ] GC(5) User=0.00s Sys=0.00s Real=0.00s
[2023-10-16T15:45:08.087+0200][gc,marking    ] GC(5) Concurrent Rebuild Remembered Sets
[2023-10-16T15:45:08.092+0200][gc,marking    ] GC(5) Concurrent Rebuild Remembered Sets 5.969ms
[2023-10-16T15:45:08.093+0200][gc,start      ] GC(5) Pause Cleanup
[2023-10-16T15:45:08.093+0200][gc            ] GC(5) Pause Cleanup 145M->145M(1024M) 0.292ms
[2023-10-16T15:45:08.093+0200][gc,cpu        ] GC(5) User=0.00s Sys=0.00s Real=0.00s
[2023-10-16T15:45:08.093+0200][gc,marking    ] GC(5) Concurrent Cleanup for Next Mark
[2023-10-16T15:45:08.106+0200][gc,marking    ] GC(5) Concurrent Cleanup for Next Mark 12.797ms
[2023-10-16T15:45:08.106+0200][gc            ] GC(5) Concurrent Cycle 38.089ms
[2023-10-16T15:53:24.383+0200][gc,heap,exit  ] Heap
[2023-10-16T15:53:24.383+0200][gc,heap,exit  ]  garbage-first heap   total 1048576K, used 191979K [0x00000000c0000000, 0x0000000100000000)
[2023-10-16T15:53:24.383+0200][gc,heap,exit  ]   region size 1024K, 49 young (50176K), 2 survivors (2048K)
[2023-10-16T15:53:24.383+0200][gc,heap,exit  ]  Metaspace       used 41587K, capacity 44013K, committed 44032K, reserved 1087488K
[2023-10-16T15:53:24.384+0200][gc,heap,exit  ]   class space    used 5455K, capacity 6649K, committed 6656K, reserved 1048576K
