[2023-10-16T15:44:41.009+0200][gc,heap] Heap region size: 1M
[2023-10-16T15:44:41.020+0200][gc     ] Using G1
[2023-10-16T15:44:41.020+0200][gc,heap,coops] Heap address: 0x00000000e0000000, size: 512 MB, Compressed Oops mode: 32-bit
[2023-10-16T15:44:41.020+0200][gc,cds       ] Mark closed archive regions in map: [0x00000000fff00000, 0x00000000fff6bff8]
[2023-10-16T15:44:41.020+0200][gc,cds       ] Mark open archive regions in map: [0x00000000ffe00000, 0x00000000ffe47ff8]
[2023-10-16T15:44:41.636+0200][gc,start     ] GC(0) Pause Young (Normal) (G1 Evacuation Pause)
[2023-10-16T15:44:41.639+0200][gc,task      ] GC(0) Using 8 workers of 8 for evacuation
[2023-10-16T15:44:41.664+0200][gc,mmu       ] GC(0) MMU target violated: 21.0ms (20.0ms/21.0ms)
[2023-10-16T15:44:41.664+0200][gc,phases    ] GC(0)   Pre Evacuate Collection Set: 0.0ms
[2023-10-16T15:44:41.664+0200][gc,phases    ] GC(0)   Evacuate Collection Set: 24.0ms
[2023-10-16T15:44:41.664+0200][gc,phases    ] GC(0)   Post Evacuate Collection Set: 0.8ms
[2023-10-16T15:44:41.664+0200][gc,phases    ] GC(0)   Other: 3.2ms
[2023-10-16T15:44:41.664+0200][gc,heap      ] GC(0) Eden regions: 25->0(21)
[2023-10-16T15:44:41.664+0200][gc,heap      ] GC(0) Survivor regions: 0->4(4)
[2023-10-16T15:44:41.664+0200][gc,heap      ] GC(0) Old regions: 2->5
[2023-10-16T15:44:41.664+0200][gc,heap      ] GC(0) Humongous regions: 0->0
[2023-10-16T15:44:41.664+0200][gc,metaspace ] GC(0) Metaspace: 7762K(8192K)->7762K(8192K) NonClass: 6900K(7168K)->6900K(7168K) Class: 862K(1024K)->862K(1024K)
[2023-10-16T15:44:41.664+0200][gc           ] GC(0) Pause Young (Normal) (G1 Evacuation Pause) 25M->7M(512M) 28.328ms
[2023-10-16T15:44:41.665+0200][gc,cpu       ] GC(0) User=0.00s Sys=0.05s Real=0.03s
[2023-10-16T15:53:25.534+0200][gc,heap,exit ] Heap
[2023-10-16T15:53:25.534+0200][gc,heap,exit ]  garbage-first heap   total 524288K, used 15864K [0x00000000e0000000, 0x0000000100000000)
[2023-10-16T15:53:25.534+0200][gc,heap,exit ]   region size 1024K, 13 young (13312K), 4 survivors (4096K)
[2023-10-16T15:53:25.534+0200][gc,heap,exit ]  Metaspace       used 8968K, capacity 9329K, committed 9600K, reserved 1058816K
[2023-10-16T15:53:25.534+0200][gc,heap,exit ]   class space    used 981K, capacity 1117K, committed 1152K, reserved 1048576K
