[2023-10-16T15:37:34.166+0200][gc,heap] Heap region size: 1M
[2023-10-16T15:37:34.184+0200][gc     ] Using G1
[2023-10-16T15:37:34.184+0200][gc,heap,coops] Heap address: 0x00000000e0000000, size: 512 MB, Compressed Oops mode: 32-bit
[2023-10-16T15:37:34.186+0200][gc,cds       ] Mark closed archive regions in map: [0x00000000fff00000, 0x00000000fff6bff8]
[2023-10-16T15:37:34.186+0200][gc,cds       ] Mark open archive regions in map: [0x00000000ffe00000, 0x00000000ffe47ff8]
[2023-10-16T15:37:34.991+0200][gc,start     ] GC(0) Pause Young (Normal) (G1 Evacuation Pause)
[2023-10-16T15:37:34.994+0200][gc,task      ] GC(0) Using 8 workers of 8 for evacuation
[2023-10-16T15:37:35.013+0200][gc,phases    ] GC(0)   Pre Evacuate Collection Set: 0.1ms
[2023-10-16T15:37:35.014+0200][gc,phases    ] GC(0)   Evacuate Collection Set: 18.3ms
[2023-10-16T15:37:35.014+0200][gc,phases    ] GC(0)   Post Evacuate Collection Set: 0.4ms
[2023-10-16T15:37:35.014+0200][gc,phases    ] GC(0)   Other: 3.6ms
[2023-10-16T15:37:35.014+0200][gc,heap      ] GC(0) Eden regions: 25->0(21)
[2023-10-16T15:37:35.014+0200][gc,heap      ] GC(0) Survivor regions: 0->4(4)
[2023-10-16T15:37:35.014+0200][gc,heap      ] GC(0) Old regions: 2->5
[2023-10-16T15:37:35.014+0200][gc,heap      ] GC(0) Humongous regions: 0->0
[2023-10-16T15:37:35.014+0200][gc,metaspace ] GC(0) Metaspace: 7786K(8192K)->7786K(8192K) NonClass: 6921K(7168K)->6921K(7168K) Class: 865K(1024K)->865K(1024K)
[2023-10-16T15:37:35.014+0200][gc           ] GC(0) Pause Young (Normal) (G1 Evacuation Pause) 25M->7M(512M) 22.725ms
[2023-10-16T15:37:35.014+0200][gc,cpu       ] GC(0) User=0.02s Sys=0.11s Real=0.02s
[2023-10-16T15:41:08.200+0200][gc,heap,exit ] Heap
[2023-10-16T15:41:08.200+0200][gc,heap,exit ]  garbage-first heap   total 524288K, used 10723K [0x00000000e0000000, 0x0000000100000000)
[2023-10-16T15:41:08.200+0200][gc,heap,exit ]   region size 1024K, 8 young (8192K), 4 survivors (4096K)
[2023-10-16T15:41:08.200+0200][gc,heap,exit ]  Metaspace       used 8165K, capacity 8488K, committed 8832K, reserved 1056768K
[2023-10-16T15:41:08.200+0200][gc,heap,exit ]   class space    used 913K, capacity 1050K, committed 1152K, reserved 1048576K
